EESchema Schematic File Version 4
EELAYER 30 0
EELAYER END
$Descr A4 11693 8268
encoding utf-8
Sheet 1 1
Title ""
Date ""
Rev ""
Comp ""
Comment1 ""
Comment2 ""
Comment3 ""
Comment4 ""
$EndDescr
$Comp
L ME218_BaseLib:Cap C6
U 1 1 6022DE08
P 2800 3850
F 0 "C6" V 3052 3850 50  0000 C CNN
F 1 "10uF" V 2961 3850 50  0000 C CNN
F 2 "" H 2838 3700 50  0001 C CNN
F 3 "" H 2800 3850 50  0001 C CNN
	1    2800 3850
	0    -1   -1   0   
$EndComp
Wire Wire Line
	2650 3850 2650 3950
$Comp
L power:GNDREF #PWR?
U 1 1 602304B8
P 2650 3950
F 0 "#PWR?" H 2650 3700 50  0001 C CNN
F 1 "GNDREF" H 2655 3777 50  0000 C CNN
F 2 "" H 2650 3950 50  0001 C CNN
F 3 "" H 2650 3950 50  0001 C CNN
	1    2650 3950
	1    0    0    -1  
$EndComp
$Comp
L power:+3.3V #PWR?
U 1 1 602324D8
P 3850 900
F 0 "#PWR?" H 3850 750 50  0001 C CNN
F 1 "+3.3V" H 3865 1073 50  0000 C CNN
F 2 "" H 3850 900 50  0001 C CNN
F 3 "" H 3850 900 50  0001 C CNN
	1    3850 900 
	1    0    0    -1  
$EndComp
$Comp
L ME218_BaseLib:PIC32MX170F256B U1
U 1 1 60237D8A
P 6950 2250
F 0 "U1" H 6675 3365 50  0000 C CNN
F 1 "PIC32MX170F256B" H 6675 3274 50  0000 C CNN
F 2 "" H 6950 2250 50  0001 C CNN
F 3 "" H 6950 2250 50  0001 C CNN
	1    6950 2250
	1    0    0    -1  
$EndComp
$Comp
L ME218_BaseLib:Cap C1
U 1 1 60237D90
P 5550 1550
F 0 "C1" H 5665 1596 50  0000 L CNN
F 1 "0.1uF" H 5665 1505 50  0000 L CNN
F 2 "" H 5588 1400 50  0001 C CNN
F 3 "" H 5550 1550 50  0001 C CNN
	1    5550 1550
	1    0    0    -1  
$EndComp
$Comp
L ME218_BaseLib:Cap C2
U 1 1 60237D96
P 5550 3000
F 0 "C2" H 5665 3046 50  0000 L CNN
F 1 "0.1uF" H 5665 2955 50  0000 L CNN
F 2 "" H 5588 2850 50  0001 C CNN
F 3 "" H 5550 3000 50  0001 C CNN
	1    5550 3000
	1    0    0    -1  
$EndComp
$Comp
L ME218_BaseLib:Cap C3
U 1 1 60237D9C
P 6600 3850
F 0 "C3" V 6852 3850 50  0000 C CNN
F 1 "10uF" V 6761 3850 50  0000 C CNN
F 2 "" H 6638 3700 50  0001 C CNN
F 3 "" H 6600 3850 50  0001 C CNN
	1    6600 3850
	0    -1   -1   0   
$EndComp
Wire Wire Line
	5900 2850 5550 2850
Wire Wire Line
	5550 3150 5900 3150
Wire Wire Line
	5550 2750 5550 2850
Connection ~ 5550 2850
Wire Wire Line
	5550 3250 5550 3150
Connection ~ 5550 3150
Wire Wire Line
	6450 3550 6450 3850
Wire Wire Line
	6750 3550 6750 3850
Wire Wire Line
	6450 3850 6450 3950
Connection ~ 6450 3850
Wire Wire Line
	5550 1400 5900 1400
Wire Wire Line
	5550 1700 5900 1700
Wire Wire Line
	5550 1400 5550 1300
Connection ~ 5550 1400
Wire Wire Line
	5550 1700 5550 1800
Connection ~ 5550 1700
$Comp
L power:+3.3V #PWR?
U 1 1 60237DB2
P 5550 1300
F 0 "#PWR?" H 5550 1150 50  0001 C CNN
F 1 "+3.3V" H 5565 1473 50  0000 C CNN
F 2 "" H 5550 1300 50  0001 C CNN
F 3 "" H 5550 1300 50  0001 C CNN
	1    5550 1300
	1    0    0    -1  
$EndComp
$Comp
L power:+3.3V #PWR?
U 1 1 60237DB8
P 5550 2750
F 0 "#PWR?" H 5550 2600 50  0001 C CNN
F 1 "+3.3V" H 5565 2923 50  0000 C CNN
F 2 "" H 5550 2750 50  0001 C CNN
F 3 "" H 5550 2750 50  0001 C CNN
	1    5550 2750
	1    0    0    -1  
$EndComp
$Comp
L power:GNDREF #PWR?
U 1 1 60237DBE
P 5550 1800
F 0 "#PWR?" H 5550 1550 50  0001 C CNN
F 1 "GNDREF" H 5555 1627 50  0000 C CNN
F 2 "" H 5550 1800 50  0001 C CNN
F 3 "" H 5550 1800 50  0001 C CNN
	1    5550 1800
	1    0    0    -1  
$EndComp
$Comp
L power:GNDREF #PWR?
U 1 1 60237DC4
P 5550 3250
F 0 "#PWR?" H 5550 3000 50  0001 C CNN
F 1 "GNDREF" H 5555 3077 50  0000 C CNN
F 2 "" H 5550 3250 50  0001 C CNN
F 3 "" H 5550 3250 50  0001 C CNN
	1    5550 3250
	1    0    0    -1  
$EndComp
$Comp
L power:GNDREF #PWR?
U 1 1 60237DCA
P 6450 3950
F 0 "#PWR?" H 6450 3700 50  0001 C CNN
F 1 "GNDREF" H 6455 3777 50  0000 C CNN
F 2 "" H 6450 3950 50  0001 C CNN
F 3 "" H 6450 3950 50  0001 C CNN
	1    6450 3950
	1    0    0    -1  
$EndComp
$Comp
L ME218_BaseLib:Res1 R1
U 1 1 60237DD0
P 7650 1150
F 0 "R1" H 7718 1196 50  0000 L CNN
F 1 "10k" H 7718 1105 50  0000 L CNN
F 2 "" V 7690 1140 50  0001 C CNN
F 3 "" H 7650 1150 50  0001 C CNN
	1    7650 1150
	1    0    0    -1  
$EndComp
Wire Wire Line
	7650 1000 7650 900 
$Comp
L power:+3.3V #PWR?
U 1 1 60237DD7
P 7650 900
F 0 "#PWR?" H 7650 750 50  0001 C CNN
F 1 "+3.3V" H 7665 1073 50  0000 C CNN
F 2 "" H 7650 900 50  0001 C CNN
F 3 "" H 7650 900 50  0001 C CNN
	1    7650 900 
	1    0    0    -1  
$EndComp
Wire Wire Line
	7450 1400 7650 1400
Wire Wire Line
	7650 1400 7650 1300
Connection ~ 2650 3850
Wire Wire Line
	3850 1400 3850 1300
Wire Wire Line
	3650 1400 3850 1400
Wire Wire Line
	3850 1000 3850 900 
$Comp
L ME218_BaseLib:Res1 R2
U 1 1 602309D9
P 3850 1150
F 0 "R2" H 3918 1196 50  0000 L CNN
F 1 "10k" H 3918 1105 50  0000 L CNN
F 2 "" V 3890 1140 50  0001 C CNN
F 3 "" H 3850 1150 50  0001 C CNN
	1    3850 1150
	1    0    0    -1  
$EndComp
$Comp
L power:GNDREF #PWR?
U 1 1 6023013C
P 1750 3250
F 0 "#PWR?" H 1750 3000 50  0001 C CNN
F 1 "GNDREF" H 1755 3077 50  0000 C CNN
F 2 "" H 1750 3250 50  0001 C CNN
F 3 "" H 1750 3250 50  0001 C CNN
	1    1750 3250
	1    0    0    -1  
$EndComp
$Comp
L power:GNDREF #PWR?
U 1 1 6022FC8C
P 1750 1800
F 0 "#PWR?" H 1750 1550 50  0001 C CNN
F 1 "GNDREF" H 1755 1627 50  0000 C CNN
F 2 "" H 1750 1800 50  0001 C CNN
F 3 "" H 1750 1800 50  0001 C CNN
	1    1750 1800
	1    0    0    -1  
$EndComp
$Comp
L power:+3.3V #PWR?
U 1 1 6022FA21
P 1750 2750
F 0 "#PWR?" H 1750 2600 50  0001 C CNN
F 1 "+3.3V" H 1765 2923 50  0000 C CNN
F 2 "" H 1750 2750 50  0001 C CNN
F 3 "" H 1750 2750 50  0001 C CNN
	1    1750 2750
	1    0    0    -1  
$EndComp
$Comp
L power:+3.3V #PWR?
U 1 1 6022F52C
P 1750 1300
F 0 "#PWR?" H 1750 1150 50  0001 C CNN
F 1 "+3.3V" H 1765 1473 50  0000 C CNN
F 2 "" H 1750 1300 50  0001 C CNN
F 3 "" H 1750 1300 50  0001 C CNN
	1    1750 1300
	1    0    0    -1  
$EndComp
Connection ~ 1750 1700
Wire Wire Line
	1750 1700 1750 1800
Connection ~ 1750 1400
Wire Wire Line
	1750 1400 1750 1300
Wire Wire Line
	1750 1700 2100 1700
Wire Wire Line
	1750 1400 2100 1400
Wire Wire Line
	2950 3550 2950 3850
Wire Wire Line
	2650 3550 2650 3850
Connection ~ 1750 3150
Wire Wire Line
	1750 3250 1750 3150
Connection ~ 1750 2850
Wire Wire Line
	1750 2750 1750 2850
Wire Wire Line
	1750 3150 2100 3150
Wire Wire Line
	2100 2850 1750 2850
$Comp
L ME218_BaseLib:Cap C5
U 1 1 6022D125
P 1750 3000
F 0 "C5" H 1865 3046 50  0000 L CNN
F 1 "0.1uF" H 1865 2955 50  0000 L CNN
F 2 "" H 1788 2850 50  0001 C CNN
F 3 "" H 1750 3000 50  0001 C CNN
	1    1750 3000
	1    0    0    -1  
$EndComp
$Comp
L ME218_BaseLib:Cap C4
U 1 1 6022C784
P 1750 1550
F 0 "C4" H 1865 1596 50  0000 L CNN
F 1 "0.1uF" H 1865 1505 50  0000 L CNN
F 2 "" H 1788 1400 50  0001 C CNN
F 3 "" H 1750 1550 50  0001 C CNN
	1    1750 1550
	1    0    0    -1  
$EndComp
$Comp
L ME218_BaseLib:PIC32MX170F256B U2
U 1 1 602211FD
P 3150 2250
F 0 "U2" H 2875 3365 50  0000 C CNN
F 1 "PIC32MX170F256B" H 2875 3274 50  0000 C CNN
F 2 "" H 3150 2250 50  0001 C CNN
F 3 "" H 3150 2250 50  0001 C CNN
	1    3150 2250
	1    0    0    -1  
$EndComp
Wire Wire Line
	7450 1750 7450 1700
Wire Wire Line
	7450 1800 7450 1850
$Comp
L ME218_BaseLib:LED D1
U 1 1 602BBEF4
P 1200 2500
F 0 "D1" H 1193 2716 50  0000 C CNN
F 1 "LED" H 1193 2625 50  0000 C CNN
F 2 "" H 1200 2500 50  0001 C CNN
F 3 "" H 1200 2500 50  0001 C CNN
	1    1200 2500
	1    0    0    -1  
$EndComp
$Comp
L ME218_BaseLib:Res1 R3
U 1 1 602BD500
P 850 2850
F 0 "R3" H 918 2896 50  0000 L CNN
F 1 "270" H 918 2805 50  0000 L CNN
F 2 "" V 890 2840 50  0001 C CNN
F 3 "" H 850 2850 50  0001 C CNN
	1    850  2850
	1    0    0    -1  
$EndComp
Wire Wire Line
	2100 2500 1350 2500
Wire Wire Line
	1050 2500 850  2500
Wire Wire Line
	850  2500 850  2700
$Comp
L power:GNDREF #PWR?
U 1 1 602BFBB9
P 850 3100
F 0 "#PWR?" H 850 2850 50  0001 C CNN
F 1 "GNDREF" H 855 2927 50  0000 C CNN
F 2 "" H 850 3100 50  0001 C CNN
F 3 "" H 850 3100 50  0001 C CNN
	1    850  3100
	1    0    0    -1  
$EndComp
Wire Wire Line
	850  3100 850  3000
$Comp
L ME218_BaseLib:Cap C9
U 1 1 602D8990
P 2800 7300
F 0 "C9" V 3052 7300 50  0000 C CNN
F 1 "10uF" V 2961 7300 50  0000 C CNN
F 2 "" H 2838 7150 50  0001 C CNN
F 3 "" H 2800 7300 50  0001 C CNN
	1    2800 7300
	0    -1   -1   0   
$EndComp
Wire Wire Line
	2650 7300 2650 7400
$Comp
L power:GNDREF #PWR?
U 1 1 602D8997
P 2650 7400
F 0 "#PWR?" H 2650 7150 50  0001 C CNN
F 1 "GNDREF" H 2655 7227 50  0000 C CNN
F 2 "" H 2650 7400 50  0001 C CNN
F 3 "" H 2650 7400 50  0001 C CNN
	1    2650 7400
	1    0    0    -1  
$EndComp
$Comp
L power:+3.3V #PWR?
U 1 1 602D899D
P 3850 4350
F 0 "#PWR?" H 3850 4200 50  0001 C CNN
F 1 "+3.3V" H 3865 4523 50  0000 C CNN
F 2 "" H 3850 4350 50  0001 C CNN
F 3 "" H 3850 4350 50  0001 C CNN
	1    3850 4350
	1    0    0    -1  
$EndComp
Connection ~ 2650 7300
Wire Wire Line
	3850 4850 3850 4750
Wire Wire Line
	3650 4850 3850 4850
Wire Wire Line
	3850 4450 3850 4350
$Comp
L ME218_BaseLib:Res1 R4
U 1 1 602D89A7
P 3850 4600
F 0 "R4" H 3918 4646 50  0000 L CNN
F 1 "10k" H 3918 4555 50  0000 L CNN
F 2 "" V 3890 4590 50  0001 C CNN
F 3 "" H 3850 4600 50  0001 C CNN
	1    3850 4600
	1    0    0    -1  
$EndComp
$Comp
L power:GNDREF #PWR?
U 1 1 602D89AD
P 1750 6700
F 0 "#PWR?" H 1750 6450 50  0001 C CNN
F 1 "GNDREF" H 1755 6527 50  0000 C CNN
F 2 "" H 1750 6700 50  0001 C CNN
F 3 "" H 1750 6700 50  0001 C CNN
	1    1750 6700
	1    0    0    -1  
$EndComp
$Comp
L power:GNDREF #PWR?
U 1 1 602D89B3
P 1750 5250
F 0 "#PWR?" H 1750 5000 50  0001 C CNN
F 1 "GNDREF" H 1755 5077 50  0000 C CNN
F 2 "" H 1750 5250 50  0001 C CNN
F 3 "" H 1750 5250 50  0001 C CNN
	1    1750 5250
	1    0    0    -1  
$EndComp
$Comp
L power:+3.3V #PWR?
U 1 1 602D89B9
P 1750 6200
F 0 "#PWR?" H 1750 6050 50  0001 C CNN
F 1 "+3.3V" H 1765 6373 50  0000 C CNN
F 2 "" H 1750 6200 50  0001 C CNN
F 3 "" H 1750 6200 50  0001 C CNN
	1    1750 6200
	1    0    0    -1  
$EndComp
$Comp
L power:+3.3V #PWR?
U 1 1 602D89BF
P 1750 4750
F 0 "#PWR?" H 1750 4600 50  0001 C CNN
F 1 "+3.3V" H 1765 4923 50  0000 C CNN
F 2 "" H 1750 4750 50  0001 C CNN
F 3 "" H 1750 4750 50  0001 C CNN
	1    1750 4750
	1    0    0    -1  
$EndComp
Connection ~ 1750 5150
Wire Wire Line
	1750 5150 1750 5250
Connection ~ 1750 4850
Wire Wire Line
	1750 4850 1750 4750
Wire Wire Line
	1750 5150 2100 5150
Wire Wire Line
	1750 4850 2100 4850
Wire Wire Line
	2950 7000 2950 7300
Wire Wire Line
	2650 7000 2650 7300
Connection ~ 1750 6600
Wire Wire Line
	1750 6700 1750 6600
Connection ~ 1750 6300
Wire Wire Line
	1750 6200 1750 6300
Wire Wire Line
	1750 6600 2100 6600
Wire Wire Line
	2100 6300 1750 6300
$Comp
L ME218_BaseLib:Cap C8
U 1 1 602D89D3
P 1750 6450
F 0 "C8" H 1865 6496 50  0000 L CNN
F 1 "0.1uF" H 1865 6405 50  0000 L CNN
F 2 "" H 1788 6300 50  0001 C CNN
F 3 "" H 1750 6450 50  0001 C CNN
	1    1750 6450
	1    0    0    -1  
$EndComp
$Comp
L ME218_BaseLib:Cap C7
U 1 1 602D89D9
P 1750 5000
F 0 "C7" H 1865 5046 50  0000 L CNN
F 1 "0.1uF" H 1865 4955 50  0000 L CNN
F 2 "" H 1788 4850 50  0001 C CNN
F 3 "" H 1750 5000 50  0001 C CNN
	1    1750 5000
	1    0    0    -1  
$EndComp
$Comp
L ME218_BaseLib:PIC32MX170F256B U3
U 1 1 602D89DF
P 3150 5700
F 0 "U3" H 2875 6815 50  0000 C CNN
F 1 "PIC32MX170F256B" H 2875 6724 50  0000 C CNN
F 2 "" H 3150 5700 50  0001 C CNN
F 3 "" H 3150 5700 50  0001 C CNN
	1    3150 5700
	1    0    0    -1  
$EndComp
$Comp
L ME218_BaseLib:LED D2
U 1 1 602D89E5
P 1200 5950
F 0 "D2" H 1193 6166 50  0000 C CNN
F 1 "LED" H 1193 6075 50  0000 C CNN
F 2 "" H 1200 5950 50  0001 C CNN
F 3 "" H 1200 5950 50  0001 C CNN
	1    1200 5950
	1    0    0    -1  
$EndComp
$Comp
L ME218_BaseLib:Res1 R5
U 1 1 602D89EB
P 850 6300
F 0 "R5" H 918 6346 50  0000 L CNN
F 1 "270" H 918 6255 50  0000 L CNN
F 2 "" V 890 6290 50  0001 C CNN
F 3 "" H 850 6300 50  0001 C CNN
	1    850  6300
	1    0    0    -1  
$EndComp
Wire Wire Line
	2100 5950 1350 5950
Wire Wire Line
	1050 5950 850  5950
Wire Wire Line
	850  5950 850  6150
$Comp
L power:GNDREF #PWR?
U 1 1 602D89F4
P 850 6550
F 0 "#PWR?" H 850 6300 50  0001 C CNN
F 1 "GNDREF" H 855 6377 50  0000 C CNN
F 2 "" H 850 6550 50  0001 C CNN
F 3 "" H 850 6550 50  0001 C CNN
	1    850  6550
	1    0    0    -1  
$EndComp
Wire Wire Line
	850  6550 850  6450
$Comp
L power:GNDREF #PWR?
U 1 1 602A91D0
P 9850 2950
F 0 "#PWR?" H 9850 2700 50  0001 C CNN
F 1 "GNDREF" V 9850 2700 50  0000 C CNN
F 2 "" H 9850 2950 50  0001 C CNN
F 3 "" H 9850 2950 50  0001 C CNN
	1    9850 2950
	0    -1   -1   0   
$EndComp
$Comp
L ME218_BaseLib:USB2Serial U4
U 1 1 6028A727
P 9950 2400
F 0 "U4" H 10400 2100 50  0000 C CNN
F 1 "USB2Serial" H 10550 2000 50  0000 C CNN
F 2 "" H 9950 2400 50  0001 C CNN
F 3 "" H 9950 2400 50  0001 C CNN
	1    9950 2400
	1    0    0    -1  
$EndComp
$Comp
L power:GNDREF #PWR?
U 1 1 602802B2
P 9600 1600
F 0 "#PWR?" H 9600 1350 50  0001 C CNN
F 1 "GNDREF" V 9600 1350 50  0000 C CNN
F 2 "" H 9600 1600 50  0001 C CNN
F 3 "" H 9600 1600 50  0001 C CNN
	1    9600 1600
	0    1    1    0   
$EndComp
$Comp
L power:+3.3V #PWR?
U 1 1 6027EA8E
P 9600 1500
F 0 "#PWR?" H 9600 1350 50  0001 C CNN
F 1 "+3.3V" V 9600 1750 50  0000 C CNN
F 2 "" H 9600 1500 50  0001 C CNN
F 3 "" H 9600 1500 50  0001 C CNN
	1    9600 1500
	0    -1   -1   0   
$EndComp
$Comp
L ME218_BaseLib:MPLAB_Snap PRG1
U 1 1 6027B147
P 10050 1600
F 0 "PRG1" H 10350 1450 50  0000 L CNN
F 1 "MPLAB_Snap" H 10350 1350 50  0000 L CNN
F 2 "" H 10050 1600 50  0001 C CNN
F 3 "" H 10050 1600 50  0001 C CNN
	1    10050 1600
	1    0    0    -1  
$EndComp
Wire Wire Line
	7450 2250 8000 2250
Wire Wire Line
	8000 2250 8000 4800
Wire Wire Line
	8000 4800 4500 4800
Wire Wire Line
	4500 4800 4500 2550
Wire Wire Line
	4500 2550 3650 2550
Wire Wire Line
	7450 2450 7850 2450
Wire Wire Line
	4650 2450 3650 2450
Wire Wire Line
	4650 2450 4650 4650
Wire Wire Line
	4650 4650 7850 4650
Wire Wire Line
	7850 4650 7850 2450
Wire Wire Line
	7700 2550 7700 4500
Wire Wire Line
	4800 4500 4800 2250
Wire Wire Line
	4800 2250 3650 2250
Wire Wire Line
	7450 2550 7700 2550
Wire Wire Line
	4800 4500 7700 4500
Wire Wire Line
	7450 3150 7550 3150
Wire Wire Line
	7550 3150 7550 4350
Wire Wire Line
	7550 4350 4950 4350
Wire Wire Line
	4950 4350 4950 3150
Wire Wire Line
	4950 3150 3650 3150
Wire Wire Line
	7450 2750 8600 2750
Wire Wire Line
	8600 2750 8600 5600
Wire Wire Line
	8600 5600 4500 5600
Wire Wire Line
	4500 5600 4500 6200
Wire Wire Line
	4500 6200 3650 6200
Wire Wire Line
	7450 2850 8750 2850
Wire Wire Line
	8750 2850 8750 5750
Wire Wire Line
	8750 5750 4650 5750
Wire Wire Line
	4650 5750 4650 6500
Wire Wire Line
	4650 6500 3650 6500
Wire Wire Line
	7450 3050 8900 3050
Wire Wire Line
	8900 3050 8900 5900
Wire Wire Line
	8900 5900 4800 5900
Wire Wire Line
	4800 5900 4800 6300
Wire Wire Line
	4800 6300 3650 6300
Wire Wire Line
	7450 3250 9050 3250
Wire Wire Line
	9050 3250 9050 6050
Wire Wire Line
	9050 6050 4950 6050
Wire Wire Line
	4950 6050 4950 6700
Wire Wire Line
	4950 6700 3650 6700
Wire Wire Line
	9600 2650 9600 2950
Wire Wire Line
	9600 2950 9850 2950
Wire Notes Line
	9100 1100 9100 2000
Wire Notes Line
	9350 2100 9350 3100
Text Notes 9150 1200 0    50   ~ 0
For programming only, good for all 3 PIC32s
Text Notes 9400 2200 0    50   ~ 0
For serial only, good for all 3 PIC32s
Wire Notes Line
	10950 1100 10950 2000
Wire Notes Line
	9100 1100 10950 1100
Wire Notes Line
	9100 2000 10950 2000
Wire Notes Line
	10950 2100 10950 3100
Wire Notes Line
	9350 3100 10950 3100
Wire Notes Line
	9350 2100 10950 2100
Wire Wire Line
	7650 1400 9600 1400
Connection ~ 7650 1400
Wire Wire Line
	7450 1700 9600 1700
Wire Wire Line
	7450 1800 9600 1800
Wire Wire Line
	8900 2400 8900 1950
Wire Wire Line
	8900 1950 7450 1950
Wire Wire Line
	8900 2400 9600 2400
Wire Wire Line
	7450 2050 8800 2050
Wire Wire Line
	8800 2050 8800 2500
Wire Wire Line
	8800 2500 9600 2500
Text Notes 6100 1100 0    50   ~ 0
Master\n
Text Notes 2300 1100 0    50   ~ 0
Follower1
Text Notes 2300 4550 0    50   ~ 0
Follower2
Text Notes 3700 2200 0    50   ~ 0
Input pin
Text Notes 3700 5650 0    50   ~ 0
Input pin
$EndSCHEMATC
